83
29
70
117
105
76
114
89
60
105
53
115
87
41
54
43
44
105
44
118
60
94
31
46
82
87
101
21
94
84
73
51
79
55
27
40
73
75
72
116
92
60
28
111
52
115
41
47
104
67
26
48
40
102
27
110
55
47
76
113
118
37
53
40
42
37
108
117
62
75
68
106
100
21
112
62
93
95
43
64
52
42
72
42
107
48
108
110
85
96
50
48
33
92
23
61
59
25
64
82
24
115
93
68
80
44
105
56
99
85
72
89
20
114
40
84
44
108
30
103
98
28
99
103
24
22
33
72
98
66
51
20
50
41
36
65
107
97
94
23
24
119
20
40
85
82
95
62
107
50
56
45
108
102
90
77
47
48
58
105
103
91
81
72
31
87
97
69
118
51
78
47
29
90
27
64
63
69
77
57
111
35
22
73
52
70
24
88
92
118
55
57
58
93
43
87
107
36
52